<?xml version="1.0" encoding="UTF-8"?>
<svg width="108px" height="108px" viewBox="0 0 108 108" version="1.1" xmlns="http://www.w3.org/2000/svg" xmlns:xlink="http://www.w3.org/1999/xlink">
    <!-- Generator: Sketch 53 (72520) - https://sketchapp.com -->
    <title>Group 2</title>
    <desc>Created with Sketch.</desc>
    <g id="Page-1" stroke="none" stroke-width="1" fill="none" fill-rule="evenodd">
        <g id="Desktop-HD-Copy" transform="translate(-700.000000, -138.000000)">
            <g id="Asset-2" transform="translate(95.000000, 139.000000)">
                <g id="Group-2" transform="translate(606.000000, 0.000000)">
                    <circle id="Oval" fill="#121227" cx="53" cy="53" r="53"></circle>
                    <circle id="Oval" stroke="#695C9E" stroke-width="2" opacity="0.3" stroke-linecap="round" stroke-linejoin="round" cx="53" cy="53" r="53"></circle>
                    <g class="cta-icon">
                      <circle id="Oval" stroke="#695C9E" stroke-width="4" stroke-linecap="round" stroke-linejoin="round" cx="52.63" cy="60.59" r="4.94"></circle>
                      <path d="M57.13,57.23 L69.01,48.37" id="Path" stroke="#695C9E" stroke-width="4" stroke-linecap="round" stroke-linejoin="round"></path>
                      <path d="M73.57,56.34 C73.8555954,57.7318942 73.999662,59.149108 74,60.57 L69.06,60.57" id="Path" stroke="#695C9E" stroke-width="4" stroke-linecap="round" stroke-linejoin="round"></path>
                      <path d="M62.67,41.93 C56.1578335,38.5385212 48.347253,38.7945273 42.071149,42.605165 C35.7950451,46.4158027 31.9649364,53.2276288 31.969995,60.57 L36.97,60.57" id="Path" stroke="#695C9E" stroke-width="4" stroke-linecap="round" stroke-linejoin="round"></path>
                      <path d="M53,40.81 L53,45.75" id="Path" stroke="#695C9E" stroke-width="4" stroke-linecap="round" stroke-linejoin="round"></path>
                    </g>
                </g>
            </g>
        </g>
    </g>
</svg>
